\relax 
\providecommand\hyper@newdestlabel[2]{}
\providecommand\HyperFirstAtBeginDocument{\AtBeginDocument}
\HyperFirstAtBeginDocument{\ifx\hyper@anchor\@undefined
\global\let\oldcontentsline\contentsline
\gdef\contentsline#1#2#3#4{\oldcontentsline{#1}{#2}{#3}}
\global\let\oldnewlabel\newlabel
\gdef\newlabel#1#2{\newlabelxx{#1}#2}
\gdef\newlabelxx#1#2#3#4#5#6{\oldnewlabel{#1}{{#2}{#3}}}
\AtEndDocument{\ifx\hyper@anchor\@undefined
\let\contentsline\oldcontentsline
\let\newlabel\oldnewlabel
\fi}
\fi}
\global\let\hyper@last\relax 
\gdef\HyperFirstAtBeginDocument#1{#1}
\providecommand\HyField@AuxAddToFields[1]{}
\providecommand\HyField@AuxAddToCoFields[2]{}
\@writefile{toc}{\contentsline {section}{\numberline {1}Podstawowe informacje o projekcie}{2}{section.1}}
\@writefile{toc}{\contentsline {section}{\numberline {2}Podzia\IeC {\l } prac w ramach zespo\IeC {\l }u}{2}{section.2}}
\@writefile{toc}{\contentsline {section}{\numberline {3}Za\IeC {\l }o\IeC {\.z}enia projektu}{2}{section.3}}
\@writefile{toc}{\contentsline {subsection}{\numberline {3.1}Elementy logiczne systemu}{2}{subsection.3.1}}
\@writefile{toc}{\contentsline {subsection}{\numberline {3.2}Elementy fizyczne systemu}{3}{subsection.3.2}}
\@writefile{lof}{\contentsline {figure}{\numberline {1}{\ignorespaces Wygl\IeC {\k a}d planszy z pionkami}}{3}{figure.1}}
\@writefile{lof}{\contentsline {figure}{\numberline {2}{\ignorespaces Konfiguracja stanowiska dla pocz\IeC {\k a}tkowych pr\IeC {\'o}b}}{4}{figure.2}}
\@writefile{toc}{\contentsline {section}{\numberline {4}Przebieg prac nad projektem}{4}{section.4}}
\@writefile{toc}{\contentsline {section}{\numberline {5}Wykorzystane technologie}{5}{section.5}}
\@writefile{toc}{\contentsline {subsection}{\numberline {5.1}Rozpoznawanie obrazu}{5}{subsection.5.1}}
\@writefile{toc}{\contentsline {subsection}{\numberline {5.2}Przechwytywanie obrazu z kamery}{6}{subsection.5.2}}
\@writefile{toc}{\contentsline {subsection}{\numberline {5.3}Przesy\IeC {\l }anie danych i obrazu na serwer}{7}{subsection.5.3}}
\@writefile{toc}{\contentsline {subsection}{\numberline {5.4}Przesy\IeC {\l }anie stanu gry do przegl\IeC {\k a}darki}{7}{subsection.5.4}}
\@writefile{toc}{\contentsline {subsection}{\numberline {5.5}Wizualizacja stanu gry}{8}{subsection.5.5}}
\@writefile{toc}{\contentsline {section}{\numberline {6}Om\IeC {\'o}wienie implementacji}{8}{section.6}}
\@writefile{toc}{\contentsline {subsection}{\numberline {6.1}Akwizycja obrazu}{8}{subsection.6.1}}
\@writefile{lof}{\contentsline {figure}{\numberline {3}{\ignorespaces Zale\IeC {\.z}no\IeC {\'s}ci mi\IeC {\k e}dzy modu\IeC {\l }ami w cz\IeC {\k e}\IeC {\'s}ci akwizycji obrazu}}{8}{figure.3}}
\@writefile{lof}{\contentsline {figure}{\numberline {4}{\ignorespaces Diagram klas dla cz\IeC {\k e}\IeC {\'s}ci akwizycji obrazu}}{8}{figure.4}}
\@writefile{toc}{\contentsline {subsection}{\numberline {6.2}Rozpoznawanie obrazu}{9}{subsection.6.2}}
\@writefile{lof}{\contentsline {figure}{\numberline {5}{\ignorespaces Zale\IeC {\.z}no\IeC {\'s}ci mi\IeC {\k e}dzy modu\IeC {\l }ami w cz\IeC {\k e}\IeC {\'s}ci rozpoznawania obrazu}}{9}{figure.5}}
\@writefile{lof}{\contentsline {figure}{\numberline {6}{\ignorespaces Diagram klas dla cz\IeC {\k e}\IeC {\'s}ci rozpoznawania obrazu}}{9}{figure.6}}
\@writefile{toc}{\contentsline {subsection}{\numberline {6.3}Przechwytywanie obrazu z kamery}{10}{subsection.6.3}}
\@writefile{toc}{\contentsline {subsection}{\numberline {6.4}Klient TCP}{12}{subsection.6.4}}
\@writefile{lof}{\contentsline {figure}{\numberline {7}{\ignorespaces Klasa klienta TCP}}{12}{figure.7}}
\@writefile{toc}{\contentsline {subsection}{\numberline {6.5}W\IeC {\k e}ze\IeC {\l } centralny}{13}{subsection.6.5}}
\@writefile{lof}{\contentsline {figure}{\numberline {8}{\ignorespaces Diagram klas dla w\IeC {\k e}z\IeC {\l }a centralnego}}{13}{figure.8}}
\@writefile{toc}{\contentsline {subsection}{\numberline {6.6}Sprawdzanie poprawno\IeC {\'s}ci ruchu}{14}{subsection.6.6}}
\@writefile{lof}{\contentsline {figure}{\numberline {9}{\ignorespaces Prawid\IeC {\l }owe zbicie dw\IeC {\'o}ch pionk\IeC {\'o}w przy pomocy damki w warcabach polskich. Blado\IeC {\.z}\IeC {\'o}\IeC {\l }t\IeC {\k a} lini\IeC {\k a} oznaczono ruch alternatywny.}}{15}{figure.9}}
\@writefile{toc}{\contentsline {subsubsection}{\numberline {6.6.1}Struktura modu\IeC {\l }u}{15}{subsubsection.6.6.1}}
\@writefile{lof}{\contentsline {figure}{\numberline {10}{\ignorespaces Schemat ilustruj\IeC {\k a}cy u\IeC {\l }o\IeC {\.z}enie pionk\IeC {\'o}w wczytane do tablicy ze stanami pionk\IeC {\'o}w}}{16}{figure.10}}
\newlabel{fig:checkslayout}{{10}{16}{Schemat ilustrujący ułożenie pionków wczytane do tablicy ze stanami pionków}{figure.10}{}}
\@writefile{toc}{\contentsline {subsubsection}{\numberline {6.6.2}G\IeC {\l }\IeC {\'o}wne struktury danych}{16}{subsubsection.6.6.2}}
\@writefile{toc}{\contentsline {subsubsection}{\numberline {6.6.3}Klasa \texttt  {CheckMove}}{17}{subsubsection.6.6.3}}
\@writefile{lof}{\contentsline {figure}{\numberline {11}{\ignorespaces Reprezentacja tekstowa drzewa ataku dla zwyk\IeC {\l }ego pionka zbijaj\IeC {\k a}cego 7 pionk\IeC {\'o}w przeciwnika.}}{18}{figure.11}}
\@writefile{lof}{\contentsline {figure}{\numberline {12}{\ignorespaces Format danych wczytywanych przy pomocy metody \texttt  {\_\_load\_data}}}{19}{figure.12}}
\newlabel{fig:checkdatalayout}{{12}{19}{Format danych wczytywanych przy pomocy metody \texttt {\_\_load\_data}}{figure.12}{}}
\@writefile{toc}{\contentsline {subsubsection}{\numberline {6.6.4}Klasa \texttt  {TreeGenerator} w module \texttt  {attack}}{20}{subsubsection.6.6.4}}
\@writefile{toc}{\contentsline {subsubsection}{\numberline {6.6.5}Funkcje globalne modu\IeC {\l }u \texttt  {attack}}{20}{subsubsection.6.6.5}}
\@writefile{toc}{\contentsline {subsubsection}{\numberline {6.6.6}Powi\IeC {\k a}zania mi\IeC {\k e}dzy funkcjami}{21}{subsubsection.6.6.6}}
\@writefile{lof}{\contentsline {figure}{\numberline {13}{\ignorespaces Graf powi\IeC {\k a}za\IeC {\'n} mi\IeC {\k e}dzy funkcjami}}{21}{figure.13}}
\@writefile{lof}{\contentsline {figure}{\numberline {14}{\ignorespaces Graf powi\IeC {\k a}za\IeC {\'n} od funkcji \texttt  {possible\_attacks}}}{21}{figure.14}}
\@writefile{toc}{\contentsline {subsection}{\numberline {6.7}Klient wizualizuj\IeC {\k a}cy stan gry}{21}{subsection.6.7}}
\@writefile{toc}{\contentsline {subsubsection}{\numberline {6.7.1}Struktura projektu}{21}{subsubsection.6.7.1}}
\@writefile{toc}{\contentsline {subsubsection}{\numberline {6.7.2}G\IeC {\l }\IeC {\'o}wne struktury danych}{22}{subsubsection.6.7.2}}
\newlabel{fig:pawn}{{6.7.2}{22}{Główne struktury danych}{subsubsection.6.7.2}{}}
\@writefile{lof}{\contentsline {figure}{\numberline {15}{\ignorespaces Klasa reprezentuj\IeC {\k a}ca konkretny pionek}}{22}{figure.15}}
\newlabel{fig:pawnMove}{{6.7.2}{22}{Główne struktury danych}{figure.15}{}}
\@writefile{lof}{\contentsline {figure}{\numberline {16}{\ignorespaces Klasa reprezentuj\IeC {\k a}ca ruch pionka}}{22}{figure.16}}
\newlabel{fig:websocket}{{6.7.2}{23}{Główne struktury danych}{figure.16}{}}
\@writefile{lof}{\contentsline {figure}{\numberline {17}{\ignorespaces Klasa reprezentuj\IeC {\k a}ca dane otrzymane z WebSocketu}}{23}{figure.17}}
\newlabel{fig:configData}{{6.7.2}{23}{Główne struktury danych}{figure.17}{}}
\@writefile{lof}{\contentsline {figure}{\numberline {18}{\ignorespaces Klasa reprezentuj\IeC {\k a}ca plik konfiguracyjny}}{23}{figure.18}}
\@writefile{toc}{\contentsline {subsubsection}{\numberline {6.7.3}Najwa\IeC {\.z}niejsze metody analizy stanu planszy}{23}{subsubsection.6.7.3}}
\@writefile{toc}{\contentsline {subsubsection}{\numberline {6.7.4}Najwa\IeC {\.z}niejsze metody modyfikacji obiektu Canvas}{24}{subsubsection.6.7.4}}
\@writefile{toc}{\contentsline {subsubsection}{\numberline {6.7.5}Algorytm przetwarzania stanu gry}{25}{subsubsection.6.7.5}}
\@writefile{toc}{\contentsline {section}{\numberline {7}Napotkane problemy}{26}{section.7}}
\@writefile{toc}{\contentsline {subsection}{\numberline {7.1}Przechwytywanie obraz\IeC {\'o}w}{26}{subsection.7.1}}
\@writefile{toc}{\contentsline {subsection}{\numberline {7.2}Analiza obraz\IeC {\'o}w}{26}{subsection.7.2}}
\@writefile{lof}{\contentsline {figure}{\numberline {19}{\ignorespaces Transformacja uj\IeC {\k e}cia pod du\IeC {\.z}ym k\IeC {\k a}tem - s\IeC {\k a}siednie pola zas\IeC {\l }oni\IeC {\k e}te przez pionki}}{27}{figure.19}}
\@writefile{toc}{\contentsline {subsection}{\numberline {7.3}Klient wizualizuj\IeC {\k a}cy stan gry}{27}{subsection.7.3}}
\@writefile{toc}{\contentsline {section}{\numberline {8}Instrukcja instalacji}{27}{section.8}}
\@writefile{toc}{\contentsline {subsection}{\numberline {8.1}Klient wizualizuj\IeC {\k a}cy stan gry}{27}{subsection.8.1}}
\@writefile{toc}{\contentsline {section}{\numberline {9}Wykorzystane materia\IeC {\l }y}{27}{section.9}}
\@writefile{toc}{\contentsline {subsection}{\numberline {9.1}Klient wizualizuj\IeC {\k a}cy stan gry}{27}{subsection.9.1}}
\@writefile{toc}{\contentsline {subsubsection}{\numberline {9.1.1}Grafika}{27}{subsubsection.9.1.1}}
\newlabel{fig:client}{{9.1.1}{28}{Grafika}{subsubsection.9.1.1}{}}
\@writefile{lof}{\contentsline {figure}{\numberline {20}{\ignorespaces Wygl\IeC {\k a}d klienta wizualizuj\IeC {\k a}cego stan gry}}{28}{figure.20}}
\@writefile{toc}{\contentsline {subsubsection}{\numberline {9.1.2}\IeC {\'Z}r\IeC {\'o}d\IeC {\l }a}{28}{subsubsection.9.1.2}}
